Final Project/Research
…
Significance of cryptobiotic soil as a emergence substrate as a function of population.

## # A tibble: 607 x 6
##    crypto_e sm_gr_e lg_gr_e gyp_e bare_e  pred
##    <lgl>    <lgl>   <lgl>   <lgl> <lgl>  <dbl>
##  1 TRUE     FALSE   FALSE   FALSE FALSE   1.00
##  2 TRUE     FALSE   FALSE   FALSE FALSE   1.00
##  3 TRUE     FALSE   FALSE   FALSE FALSE   1.00
##  4 TRUE     FALSE   TRUE    FALSE FALSE   1.00
##  5 TRUE     TRUE    FALSE   FALSE FALSE   1.00
##  6 TRUE     FALSE   FALSE   FALSE FALSE   1.00
##  7 TRUE     FALSE   FALSE   FALSE FALSE   1.00
##  8 TRUE     FALSE   FALSE   FALSE FALSE   1.00
##  9 TRUE     FALSE   FALSE   FALSE FALSE   1.00
## 10 TRUE     TRUE    FALSE   FALSE FALSE   1.00
## #  with 597 more rows
